<?xml version="1.0" encoding="utf-8"?>
<!-- Generator: Adobe Illustrator 15.0.0, SVG Export Plug-In  -->
<!DOCTYPE svg PUBLIC "-//W3C//DTD SVG 1.1//EN" "http://www.w3.org/Graphics/SVG/1.1/DTD/svg11.dtd" [
	<!ENTITY ns_flows "http://ns.adobe.com/Flows/1.0/">
]>
<svg version="1.1"
	 xmlns="http://www.w3.org/2000/svg" xmlns:xlink="http://www.w3.org/1999/xlink" xmlns:a="http://ns.adobe.com/AdobeSVGViewerExtensions/3.0/"
	 x="0px" y="0px" width="500px" height="500px" viewBox="-29.505 -66.322 500 500"
	 overflow="visible" enable-background="new -29.505 -66.322 500 500" xml:space="preserve">
<defs>
</defs>
<path fill="#5E99BD" d="M22.54,171.091c0.091,2.542-0.746,5.036-2.202,7.122C14.256,186.9,9.182,200.6,9.99,212.383
	c0.178,2.705,0.044,5.441-0.764,8.021c-15.964,50.896-9.531,107.012,6.493,160.92h127.054v-79.76
	C129.61,286.891,86.29,241.277,43.486,226.6c-6.919-11.078-1.573-33.541,4.303-34.663c-0.016-0.251-0.022-0.482-0.038-0.727
	c64.665,23.353,138.212,23.353,202.879,0c-0.012,0.244-0.016,0.476-0.038,0.727c5.876,1.122,11.228,23.585,4.3,34.663
	c-43.572,14.947-87.683,61.943-99.966,75.736v78.988h125.86c16.023-53.908,22.448-110.023,6.495-160.92
	c-0.833-2.631-0.933-5.436-0.757-8.18c0.74-11.699-4.271-25.25-10.279-33.912c-1.529-2.186-2.361-4.811-2.273-7.479
	c1.79-57.214-72.373-73.199-19.056-164C256.693,3.795,254.464,0,250.932,0H148.252H45.563c-3.552,0-5.697,3.903-3.903,6.966
	C94.903,97.778,20.523,113.683,22.54,171.091z M142.477,126.336c0.867-4.009,5.067-7.499,9.198-6.697
	c3.395,0.658,5.838,4.285,5.851,7.648c0,5.03-4.26,6.72-7.947,8.876c-0.012,0.006-2.884,1.453-3.06,8.794
	c-0.021,0.908-1.281,1.229-1.541,0.351c-0.458-1.522-0.871-3.051-1.203-4.61C142.759,135.97,141.427,131.19,142.477,126.336z"/>
<polygon fill="#5E99BD" points="294.921,108.431 301.711,115.268 308.784,108.386 310.935,106.302 331.549,86.254 336.063,100.459 
	339.1,110.016 349.127,109.892 394.217,109.365 367.075,157.241 362.371,165.539 368.608,172.763 382.737,189.113 360.281,195.984 
	352.461,198.369 340.716,201.963 340.511,202.021 340.591,202.291 342.916,210.334 348.746,230.449 351.812,241.027 
	356.678,241.385 365.137,222.811 410.529,208.932 430.399,202.854 416.807,187.129 395.334,162.284 429.38,102.222 440.99,81.736 
	417.438,82.012 358.826,82.706 350.712,57.176 344.079,36.305 328.375,51.579 296.896,82.196 275.126,77.197 271.11,84.445 
	274.21,87.574 "/>
</svg>
