<?xml version="1.0" encoding="utf-8"?>
<!-- Generator: Adobe Illustrator 15.0.0, SVG Export Plug-In  -->
<!DOCTYPE svg PUBLIC "-//W3C//DTD SVG 1.1//EN" "http://www.w3.org/Graphics/SVG/1.1/DTD/svg11.dtd" [
	<!ENTITY ns_flows "http://ns.adobe.com/Flows/1.0/">
]>
<svg version="1.1"
	 xmlns="http://www.w3.org/2000/svg" xmlns:xlink="http://www.w3.org/1999/xlink" xmlns:a="http://ns.adobe.com/AdobeSVGViewerExtensions/3.0/"
	 x="0px" y="0px" width="500px" height="500px" viewBox="-24.943 -100.635 500 500"
	 overflow="visible" enable-background="new -24.943 -100.635 500 500" xml:space="preserve">
<defs>
</defs>
<path fill="#5E99BD" d="M16.782,284.427h150.657c3.813,0,7.508-1.293,10.477-3.674l41.975-33.532
	c2.622-2.099,5.886-3.231,9.242-3.231h206.172c8.178,0,14.81-6.628,14.81-14.812v-79.818c0-8.179-6.632-14.807-14.81-14.807H225.728
	c-3.651,0-7.185,1.354-9.903,3.802l-87.835,79.083c-3.083,2.772-7.083,4.308-11.229,4.308H16.782C7.523,221.745,0,229.265,0,238.528
	v29.12C0,276.919,7.523,284.427,16.782,284.427z"/>
<path fill="#5E99BD" d="M27.979,124.726c0,33.227,26.943,60.159,60.164,60.159c33.231,0,60.162-26.933,60.162-60.159
	c0-33.236-26.931-60.168-60.162-60.168C54.921,64.558,27.979,91.49,27.979,124.726z"/>
<polygon fill="#5E99BD" points="188.678,108.737 196.03,106.976 194.305,99.432 193.785,97.141 188.765,75.153 200.123,77.924 
	207.763,79.789 211.771,73.022 229.812,42.603 250.81,80.314 254.45,86.85 261.835,85.619 278.552,82.827 273.99,100.672 
	272.399,106.883 270.015,116.218 269.972,116.378 270.185,116.434 276.521,118.158 292.373,122.458 300.712,124.721 
	302.934,121.606 293.943,108.362 303.164,72.296 307.199,56.504 291.119,59.195 265.718,63.442 239.373,16.134 230.387,0 
	220.964,15.888 197.518,55.433 177.105,50.454 160.419,46.382 164.242,63.134 171.91,96.71 159.682,109.253 162.898,114.9 
	166.258,114.101 "/>
</svg>
