<?xml version="1.0" encoding="utf-8"?>
<!-- Generator: Adobe Illustrator 15.0.0, SVG Export Plug-In  -->
<!DOCTYPE svg PUBLIC "-//W3C//DTD SVG 1.1//EN" "http://www.w3.org/Graphics/SVG/1.1/DTD/svg11.dtd" [
	<!ENTITY ns_flows "http://ns.adobe.com/Flows/1.0/">
]>
<svg version="1.1"
	 xmlns="http://www.w3.org/2000/svg" xmlns:xlink="http://www.w3.org/1999/xlink" xmlns:a="http://ns.adobe.com/AdobeSVGViewerExtensions/3.0/"
	 x="0px" y="0px" width="500px" height="500px" viewBox="-104.567 -27.496 500 500"
	 overflow="visible" enable-background="new -104.567 -27.496 500 500" xml:space="preserve">
<defs>
</defs>
<path fill="#5E99BD" d="M169.464,227.687h-34.439l3.578,23.207c0.502,3.24,0.089,6.566-1.172,9.591l-21.601,51.599l18.049,0.135
	L169.464,227.687z"/>
<path fill="#5E99BD" d="M283.483,293.429c-9.678-38.571-44.513-65.742-84.283-65.742h-2.98l45.338,131.059
	c3.03,8.749,1.637,18.432-3.737,25.977c-5.379,7.544-14.068,12.028-23.325,12.028h-12.896H98.305h-12.97
	c-10.604-0.027-20.763-4.662-28.221-12.2c-7.458-7.54-11.609-17.736-11.528-28.343l0.035-4.764
	c0.157-20.718,16.081-37.6,36.292-39.404l34.975-84.353H103.69c-39.771,0-74.599,27.171-84.277,65.742l-17.792,70.9
	c-8.385,33.408,16.836,65.736,51.287,65.736h197.081c34.445,0,59.667-32.328,51.284-65.736L283.483,293.429z"/>
<path fill="#5E99BD" d="M85.625,334.453H85.49c-4.464,0-8.534,1.728-11.614,4.547c-3.435,3.133-5.627,7.62-5.663,12.615
	l-0.035,4.753c-0.035,4.569,1.788,9.046,5.004,12.292c3.435,3.467,7.877,5.477,12.194,5.499h22.439l16.589-39.415l-18.003-0.135
	L85.625,334.453z"/>
<path fill="#5E99BD" d="M250.107,97.139C250.107,43.489,206.616,0,152.963,0C99.315,0,55.818,43.489,55.818,97.139
	c0,53.65,43.498,97.142,97.145,97.142C206.616,194.281,250.107,150.789,250.107,97.139z"/>
</svg>
